…
``` r
library(magrittr)
bernoulli_trial(prob = .5) %>%
  add_trials() %>%
  add_trials() %>%
  add_trials(5) %>%
  .$out %>%
  sum_across() %>%
  prod_across()
#> # A tibble: 128 × 16
#>    global_probs global…¹ t1_ou…² t1_prob t2_ou…³ t2_prob t3_ou…⁴ t3_prob t4_ou…⁵
#>           <dbl>    <dbl>   <int>   <dbl>   <int>   <dbl>   <int>   <dbl>   <int>
#>  1      0.00781        0       0     0.5       0     0.5       0     0.5       0
#>  2      0.00781        1       0     0.5       0     0.5       0     0.5       0
#>  3      0.00781        1       0     0.5       0     0.5       0     0.5       0
#>  4      0.00781        2       0     0.5       0     0.5       0     0.5       0
#>  5      0.00781        1       0     0.5       0     0.5       0     0.5       0
#>  6      0.00781        2       0     0.5       0     0.5       0     0.5       0
#>  7      0.00781        2       0     0.5       0     0.5       0     0.5       0
#>  8      0.00781        3       0     0.5       0     0.5       0     0.5       0
#>  9      0.00781        1       0     0.5       0     0.5       0     0.5       1
#> 10      0.00781        2       0     0.5       0     0.5       0     0.5       1
#> # … with 118 more rows, 7 more variables: t4_prob <dbl>, t5_outcome <int>,
#> #   t5_prob <dbl>, t6_outcome <int>, t6_prob <dbl>, t7_outcome <int>,
#> #   t7_prob <dbl>, and abbreviated variable names ¹​global_outcome, ²​t1_outcome,
#> #   ³​t2_outcome, ⁴​t3_outcome, ⁵​t4_outcome
```
…
