Observe consecutive bernoulli trials in dataframe • tidybernoulli
…
library(magrittr)
bernoulli_trial(prob = .5) %>%
  trial_init() %>% 
  add_trials() %>%
  add_trials() %>%
  add_trials(5) %>%
  .$out %>%
  sum_across() %>%
  prod_across()
#> # A tibble: 256 × 19
#>    global_probs global…¹ history t1_ou…² t1_prob t2_ou…³ t2_prob t3_ou…⁴ t3_prob
#>           <dbl>    <dbl>   <int>   <dbl>   <dbl>   <dbl>   <dbl>   <dbl>   <dbl>
#>  1      0.00391        0       1       0     0.5       0     0.5       0     0.5
#>  2      0.00391        1       2       0     0.5       0     0.5       0     0.5
#>  3      0.00391        1       3       0     0.5       0     0.5       0     0.5
#>  4      0.00391        2       4       0     0.5       0     0.5       0     0.5
#>  5      0.00391        1       5       0     0.5       0     0.5       0     0.5
#>  6      0.00391        2       6       0     0.5       0     0.5       0     0.5
#>  7      0.00391        2       7       0     0.5       0     0.5       0     0.5
#>  8      0.00391        3       8       0     0.5       0     0.5       0     0.5
#>  9      0.00391        1       9       0     0.5       0     0.5       0     0.5
#> 10      0.00391        2      10       0     0.5       0     0.5       0     0.5
#> # … with 246 more rows, 10 more variables: t4_outcome <dbl>, t4_prob <dbl>,
#> #   t5_outcome <dbl>, t5_prob <dbl>, t6_outcome <dbl>, t6_prob <dbl>,
#> #   t7_outcome <dbl>, t7_prob <dbl>, t8_outcome <dbl>, t8_prob <dbl>, and
#> #   abbreviated variable names ¹​global_outcome, ²​t1_outcome, ³​t2_outcome,
#> #   ⁴​t3_outcome
…
